<?xml version="1.0" encoding="utf-8"?>
<!-- Generator: Adobe Illustrator 24.3.0, SVG Export Plug-In . SVG Version: 6.00 Build 0)  -->
<svg version="1.1" id="Layer_1" xmlns="http://www.w3.org/2000/svg" xmlns:xlink="http://www.w3.org/1999/xlink" x="0px" y="0px"
	 viewBox="0 0 21 21" style="enable-background:new 0 0 21 21;" xml:space="preserve">
<g>
	<g>
		<path d="M20.25,15.1c0.66,0.53,0.83,0.95,0.62,1.5c-0.18,0.48-0.68,0.79-1.21,0.75c-0.5-0.04-0.95-0.41-1.06-0.87
			c-0.14-0.57,0.1-1.01,0.76-1.4c0-1.13,0-2.27,0-3.42c0-0.28-0.15-0.43-0.42-0.46c-0.15-0.02-0.29-0.02-0.48-0.02
			c0,0.13,0,0.24,0,0.36c0,0.84,0,1.68,0,2.51c-0.01,1.3-1,2.31-2.29,2.31c-4.4,0.01-8.8,0.01-13.19,0c-1.29,0-2.27-1-2.27-2.28
			c0-2.21,0-4.41,0-6.62c0-1.25,0.97-2.27,2.22-2.27c4.43-0.01,8.86-0.01,13.29,0c1.26,0,2.23,1.02,2.25,2.29
			c0.01,0.81,0,1.61,0,2.42c0,0.11,0,0.23,0,0.38c0.26,0,0.5-0.03,0.72,0.01c0.58,0.09,1.07,0.69,1.07,1.29
			C20.25,12.74,20.25,13.92,20.25,15.1z M9.57,15.79c2.14,0,4.27-0.03,6.4,0.01c1.15,0.02,1.95-0.8,1.93-1.93
			c-0.04-2.07-0.01-4.13-0.01-6.2c0-1.25-0.67-1.93-1.91-1.93c-4.28,0-8.56,0-12.84,0c-1.22,0-1.91,0.69-1.91,1.91
			c0,2.08,0,4.16,0,6.23c0,1.22,0.69,1.91,1.9,1.92C5.28,15.79,7.42,15.79,9.57,15.79z"/>
		<path d="M15.05,16.82c-1.56,1.21-3.27,1.96-5.25,2.02c-2.1,0.06-3.87-0.74-5.46-2.05c0.65,0.01,1.26-0.11,1.91,0.24
			c2.38,1.29,4.78,1.29,7.13-0.14c0.14-0.09,0.33-0.13,0.5-0.14c0.36-0.02,0.72,0,1.08,0C14.98,16.76,14.99,16.78,15.05,16.82z"/>
		<path d="M4.28,4.55c3.06-2.64,7.3-2.5,10.73-0.02c-0.6-0.05-1.2,0.14-1.8-0.17c-1.95-1.02-3.98-1.29-6.09-0.52
			c-0.28,0.1-0.57,0.2-0.8,0.37c-0.43,0.32-0.89,0.39-1.4,0.35C4.72,4.53,4.53,4.55,4.28,4.55z"/>
		<path d="M2.75,10.63c0-0.64,0-1.27,0-1.91c0-0.71,0.47-1.19,1.19-1.2c0.57-0.01,1.14-0.01,1.71,0C6.4,7.54,6.9,8.04,6.9,8.79
			c0,1.24-0.02,2.48,0.01,3.72c0.02,0.7-0.67,1.31-1.26,1.27c-0.59-0.05-1.18-0.01-1.77-0.01c-0.63-0.01-1.12-0.5-1.13-1.13
			C2.74,11.97,2.75,11.3,2.75,10.63z M3.36,10.26c0.29,0.32,0.52,0.58,0.77,0.86c-0.06,0.31-0.12,0.62-0.19,0.99
			c0.35-0.18,0.64-0.32,0.91-0.47c0.3,0.15,0.58,0.29,0.91,0.46c-0.07-0.37-0.13-0.68-0.19-0.98c0.26-0.29,0.5-0.56,0.76-0.86
			c-0.37-0.03-0.67-0.06-0.97-0.09C5.2,9.81,5.04,9.48,4.86,9.09c-0.19,0.39-0.35,0.73-0.52,1.08C4.03,10.2,3.73,10.23,3.36,10.26z"
			/>
		<path d="M7.53,10.63c0-0.66,0-1.31,0-1.97c0-0.6,0.47-1.1,1.07-1.12c0.65-0.02,1.31-0.02,1.97,0c0.6,0.02,1.09,0.53,1.1,1.14
			c0.01,1.31,0.01,2.63,0,3.94c0,0.61-0.53,1.13-1.14,1.14c-0.63,0.01-1.27,0.01-1.9,0c-0.59-0.01-1.09-0.51-1.09-1.1
			C7.53,11.98,7.53,11.3,7.53,10.63z M8.73,12.1c0.34-0.17,0.63-0.32,0.91-0.46c0.29,0.15,0.57,0.29,0.9,0.46
			c-0.07-0.37-0.13-0.67-0.19-0.98c0.25-0.28,0.49-0.56,0.76-0.86c-0.37-0.03-0.67-0.06-0.96-0.09C9.98,9.81,9.82,9.49,9.64,9.1
			c-0.19,0.39-0.35,0.72-0.52,1.07c-0.3,0.03-0.61,0.06-0.97,0.09c0.28,0.31,0.52,0.58,0.76,0.85C8.86,11.43,8.8,11.74,8.73,12.1z"
			/>
		<path d="M16.44,10.66c0,0.65,0,1.29,0,1.94c0,0.65-0.51,1.16-1.17,1.16c-0.61,0-1.23,0.01-1.84,0c-0.62-0.01-1.12-0.51-1.13-1.13
			c0-1.33,0-2.65,0-3.98c0-0.58,0.47-1.09,1.05-1.11c0.67-0.02,1.33-0.02,2,0c0.61,0.02,1.08,0.53,1.09,1.15
			C16.45,9.34,16.44,10,16.44,10.66z M13.7,11.12c-0.06,0.3-0.12,0.61-0.19,0.98c0.34-0.17,0.62-0.31,0.91-0.46
			c0.29,0.15,0.58,0.29,0.91,0.46c-0.07-0.38-0.13-0.68-0.19-0.98c0.25-0.28,0.49-0.55,0.76-0.85c-0.37-0.03-0.67-0.06-0.97-0.09
			c-0.17-0.37-0.33-0.7-0.51-1.08c-0.19,0.39-0.35,0.73-0.52,1.08c-0.32,0.03-0.61,0.06-0.97,0.09
			C13.21,10.57,13.45,10.84,13.7,11.12z"/>
	</g>
</g>
</svg>
